%YAML 1.1
%TAG !u! tag:unity3d.com,2011:
--- !u!1045 &1
EditorBuildSettings:
  m_ObjectHideFlags: 0
  serializedVersion: 2
  m_Scenes:
  - enabled: 1
    path: Assets/Scenes/Tesisti/GlobalControllerLoader.unity
    guid: 7cd1cd5c57d3a774c97e850c05e16fe4
  - enabled: 1
    path: Assets/Scenes/Tesisti/MainMenu.unity
    guid: 6e003af3d5d2f1d4f81731666637b329
  - enabled: 1
    path: Assets/Scenes/Tesisti/Tunnel.unity
    guid: 86d238c7012feb74bacd47b5cd724e3e
  - enabled: 0
    path: Assets/Scenes/GlobalControllerLoader.unity
    guid: 4520b4a74e46fcb47862bab971acfb20
  - enabled: 0
    path: Assets/Scenes/MainMenu.unity
    guid: a11590fa0bac2594ea6cc79559620495
  - enabled: 0
    path: Assets/Scenes/Tunnel.unity
    guid: fca15eb922601c24683431982b24e2f0
  - enabled: 0
    path: 
    guid: 529799f0f3b779247852c0b75f2e8284
  - enabled: 0
    path: Assets/Scenes/Tesisti/Tunnel - NPC.unity
    guid: ede9722ad2c3681458ea405dddc11a1d
  - enabled: 0
    path: Assets/Scenes/Tesisti/AltriProgetti/Smoke/custom_particles.unity
    guid: a292d89e86d297c4e8bfd274e3d49967
  - enabled: 0
    path: Assets/Scenes/Tesisti/AltriProgetti/VideoSmoke/Tunnel-Smoke-Comparison.unity
    guid: d8d7af757a3de224e9eed17fb2065608
  - enabled: 0
    path: Assets/Scenes/Tesisti/AltriProgetti/VideoSmoke/Tunnel-Smoke-Comparison Davide.unity
    guid: eca0b3708475074409fa1fe13eed9053
  - enabled: 0
    path: Assets/Scenes/Tesisti/AltriProgetti/VideoSmoke/Tunnel-Smoke-Gennaio.unity
    guid: 8320dca704462974aa0e3869e6609a8b
  - enabled: 0
    path: Assets/Scenes/Tesisti/Tunnel - Coil.unity
    guid: c70898441d0f6b14ca546212097c69af
