%YAML 1.1
%TAG !u! tag:unity3d.com,2011:
--- !u!78 &1
TagManager:
  serializedVersion: 2
  tags:
  - SmartDestroy
  - Walkable
  - Watchable
  - Undestroyable
  - TunnelController
  - Controller
  - Item
  - Localized
  - NPC
  - Localizer
  - MainMenuUI
  - ServerOnlyPC
  - ItemList
  layers:
  - Default
  - TransparentFX
  - Ignore Raycast
  - 
  - Water
  - UI
  - 
  - 
  - MovingItem
  - TunnelIgnore
  - Fire
  - ControllerLayer
  - PlayerLayer
  - PlayerLimit
  - Terrain
  - Smoke
  - Firetruck
  - NPC
  - Cintura
  - ColliderSondaWater
  - Rope
  - 
  - 
  - 
  - 
  - 
  - 
  - 
  - 
  - 
  - 
  - 
  m_SortingLayers:
  - name: Default
    uniqueID: 0
    locked: 0
