%YAML 1.1
%TAG !u! tag:unity3d.com,2011:
--- !u!1001 &100100000
Prefab:
  m_ObjectHideFlags: 1
  serializedVersion: 2
  m_Modification:
    m_TransformParent: {fileID: 0}
    m_Modifications: []
    m_RemovedComponents: []
  m_ParentPrefab: {fileID: 0}
  m_RootGameObject: {fileID: 1169098618610040}
  m_IsPrefabParent: 1
--- !u!1 &1169098618610040
GameObject:
  m_ObjectHideFlags: 0
  m_PrefabParentObject: {fileID: 0}
  m_PrefabInternal: {fileID: 100100000}
  serializedVersion: 5
  m_Component:
  - component: {fileID: 4311209355759650}
  - component: {fileID: 114151313324249924}
  m_Layer: 0
  m_Name: Incendio Tunnel
  m_TagString: Untagged
  m_Icon: {fileID: 0}
  m_NavMeshLayer: 0
  m_StaticEditorFlags: 0
  m_IsActive: 1
--- !u!4 &4311209355759650
Transform:
  m_ObjectHideFlags: 1
  m_PrefabParentObject: {fileID: 0}
  m_PrefabInternal: {fileID: 100100000}
  m_GameObject: {fileID: 1169098618610040}
  m_LocalRotation: {x: 0, y: 0, z: 0, w: 1}
  m_LocalPosition: {x: 0, y: 0, z: 0}
  m_LocalScale: {x: 1, y: 1, z: 1}
  m_Children: []
  m_Father: {fileID: 0}
  m_RootOrder: 0
  m_LocalEulerAnglesHint: {x: 0, y: 0, z: 0}
--- !u!114 &114151313324249924
MonoBehaviour:
  m_ObjectHideFlags: 1
  m_PrefabParentObject: {fileID: 0}
  m_PrefabInternal: {fileID: 100100000}
  m_GameObject: {fileID: 1169098618610040}
  m_Enabled: 1
  m_EditorHideFlags: 0
  m_Script: {fileID: 11500000, guid: 4d2571051d51d854abb1a3a5554315a2, type: 3}
  m_Name: 
  m_EditorClassIdentifier: 
  XSmallFirePrefab: {fileID: 4115137228202174, guid: 770a4acf108531140a77347bc136dfea,
    type: 2}
  SmallFirePrefab: {fileID: 4557345265567042, guid: b9c764f383b79e74bb2187c4fe92d03c,
    type: 2}
  MidFirePrefab: {fileID: 4327765729560204, guid: 7239ea73d23aefa4e8721389fa7b4b57,
    type: 2}
  BigFirePrefab: {fileID: 4541208894850458, guid: c3101fb306a71d143894f47f5f595e3b,
    type: 2}
  FireWallPrefab: {fileID: 4366032666193128, guid: e74b8814a70070344874882ddb78a141,
    type: 2}
  FireLeanDXPrefab: {fileID: 4136658406455066, guid: 0c3789f938a4ace4d92fc5532b976fd3,
    type: 2}
  FireLeanSXPrefab: {fileID: 4273056180946266, guid: 6139fe86676aabd45bd16ab3f5f01f4c,
    type: 2}
  LightSmokePrefab: {fileID: 4681764796490364, guid: 681a22b29fd84ed4b8a8e0c786ec267d,
    type: 2}
  HardSmokePrefab: {fileID: 4812186160146014, guid: 40ba03bdae8006c42a35c548a237cf21,
    type: 2}
  AshesPrefab: {fileID: 4104560650838364, guid: c29aa78abd5bc2b4290f8f185890fcd5,
    type: 2}
  Smoke: 1
  TimePerStep:
  - 10
  - 10
  - 10
  - 10
  - 15
  - 15
  - 20
  ManualStep: 0
  TransitionTime: 1
