%YAML 1.1
%TAG !u! tag:unity3d.com,2011:
--- !u!114 &11400000
MonoBehaviour:
  m_ObjectHideFlags: 0
  m_PrefabParentObject: {fileID: 0}
  m_PrefabInternal: {fileID: 0}
  m_GameObject: {fileID: 0}
  m_Enabled: 1
  m_EditorHideFlags: 0
  m_Script: {fileID: 11500000, guid: 7d41887b1546f5c44ab54e7e65aad3bc, type: 3}
  m_Name: Lati
  m_EditorClassIdentifier: 
  combinedMaterialInfo: []
  materials:
  - {fileID: 2100000, guid: 230c1b896e0bcda41b96280a0c9093d7, type: 2}
  - {fileID: 2100000, guid: 4fc9ce0e016803b498677ad985e57ecc, type: 2}
  prefabUVRects: []
  materialsAndUVRects:
  - material: {fileID: 2100000, guid: 230c1b896e0bcda41b96280a0c9093d7, type: 2}
    atlasRect:
      serializedVersion: 2
      x: 0
      y: 0
      width: 1
      height: 1
    srcObjName: TunnelDefaultDX
    samplingRectMatAndUVTiling:
      serializedVersion: 2
      x: 0
      y: 0
      width: 1
      height: 1
    sourceMaterialTiling:
      serializedVersion: 2
      x: 0
      y: 0
      width: 1
      height: 1
    samplingEncapsulatinRect:
      serializedVersion: 2
      x: 0
      y: 0
      width: 1
      height: 1
  - material: {fileID: 2100000, guid: 4fc9ce0e016803b498677ad985e57ecc, type: 2}
    atlasRect:
      serializedVersion: 2
      x: 0
      y: 0
      width: 1
      height: 1
    srcObjName: TunnelDefaultDX
    samplingRectMatAndUVTiling:
      serializedVersion: 2
      x: 0
      y: 0
      width: 1
      height: 1
    sourceMaterialTiling:
      serializedVersion: 2
      x: 0
      y: 0
      width: 1
      height: 1
    samplingEncapsulatinRect:
      serializedVersion: 2
      x: 0
      y: 0
      width: 1
      height: 1
  resultMaterial: {fileID: 2100000, guid: bd809d3247f698a4ba4c530778aa06b3, type: 2}
  resultMaterials:
  - combinedMaterial: {fileID: 2100000, guid: 29e7c5dfbca8e164aa55145f875290ba, type: 2}
    sourceMaterials:
    - {fileID: 2100000, guid: 230c1b896e0bcda41b96280a0c9093d7, type: 2}
  - combinedMaterial: {fileID: 2100000, guid: 4806c0970a4c0354eacab3c69f653ce7, type: 2}
    sourceMaterials:
    - {fileID: 2100000, guid: 4fc9ce0e016803b498677ad985e57ecc, type: 2}
  doMultiMaterial: 1
  fixOutOfBoundsUVs: 0
