%YAML 1.1
%TAG !u! tag:unity3d.com,2011:
--- !u!1001 &100100000
Prefab:
  m_ObjectHideFlags: 1
  serializedVersion: 2
  m_Modification:
    m_TransformParent: {fileID: 0}
    m_Modifications: []
    m_RemovedComponents: []
  m_ParentPrefab: {fileID: 0}
  m_RootGameObject: {fileID: 1550372213319468}
  m_IsPrefabParent: 1
--- !u!1 &1550372213319468
GameObject:
  m_ObjectHideFlags: 0
  m_PrefabParentObject: {fileID: 0}
  m_PrefabInternal: {fileID: 100100000}
  serializedVersion: 5
  m_Component:
  - component: {fileID: 4982733804614206}
  - component: {fileID: 114397268005145444}
  m_Layer: 9
  m_Name: Localizer
  m_TagString: Localizer
  m_Icon: {fileID: 0}
  m_NavMeshLayer: 0
  m_StaticEditorFlags: 0
  m_IsActive: 1
--- !u!4 &4982733804614206
Transform:
  m_ObjectHideFlags: 1
  m_PrefabParentObject: {fileID: 0}
  m_PrefabInternal: {fileID: 100100000}
  m_GameObject: {fileID: 1550372213319468}
  m_LocalRotation: {x: -0, y: -0, z: -0, w: 1}
  m_LocalPosition: {x: 0, y: 0, z: 0}
  m_LocalScale: {x: 1, y: 1, z: 1}
  m_Children: []
  m_Father: {fileID: 0}
  m_RootOrder: 0
  m_LocalEulerAnglesHint: {x: 0, y: 0, z: 0}
--- !u!114 &114397268005145444
MonoBehaviour:
  m_ObjectHideFlags: 1
  m_PrefabParentObject: {fileID: 0}
  m_PrefabInternal: {fileID: 100100000}
  m_GameObject: {fileID: 1550372213319468}
  m_Enabled: 1
  m_EditorHideFlags: 0
  m_Script: {fileID: 11500000, guid: 463b3e2c26001f644b18b3cb9286e4e9, type: 3}
  m_Name: 
  m_EditorClassIdentifier: 
  SelectedLanguage: 10
  LangFiles:
  - {fileID: 4900000, guid: 6267a3a0d2abc6441ae3e2bc251e3f8a, type: 3}
  - {fileID: 4900000, guid: 7eb75f031b9190449bb44b9f1e656bce, type: 3}
  - {fileID: 4900000, guid: e4fb765c76aab75428870e573b0ff7c9, type: 3}
  LocalizedObjects: []
