%YAML 1.1
%TAG !u! tag:unity3d.com,2011:
--- !u!74 &7400000
AnimationClip:
  m_ObjectHideFlags: 0
  m_PrefabParentObject: {fileID: 0}
  m_PrefabInternal: {fileID: 0}
  m_Name: ArmadiettoOpenE
  serializedVersion: 6
  m_Legacy: 0
  m_Compressed: 0
  m_UseHighQualityCurve: 1
  m_RotationCurves:
  - curve:
      serializedVersion: 2
      m_Curve:
      - serializedVersion: 2
        time: 0
        value: {x: 0, y: 0, z: 0.0018785209, w: 0.9999982}
        inSlope: {x: 0, y: 0, z: 0, w: 0}
        outSlope: {x: 0, y: 0, z: 0.13638864, w: -0.00014305115}
        tangentMode: 0
      - serializedVersion: 2
        time: 0.4166667
        value: {x: 0, y: 0, z: 0.22413893, w: 0.9745572}
        inSlope: {x: 0, y: 0, z: 0.9158134, w: -0.21042822}
        outSlope: {x: 0, y: 0, z: 0.9182543, w: -0.21135809}
        tangentMode: 0
      - serializedVersion: 2
        time: 0.75
        value: {x: 0, y: 0, z: 0.56211966, w: 0.82705593}
        inSlope: {x: 0, y: 0, z: 0.95611817, w: -0.64945227}
        outSlope: {x: 0, y: 0, z: 0.9492636, w: -0.6456375}
        tangentMode: 0
      - serializedVersion: 2
        time: 1.25
        value: {x: 0, y: 0, z: 0.85045063, w: 0.5260549}
        inSlope: {x: 0, y: 0, z: 0.19228458, w: -0.31077862}
        outSlope: {x: 0, y: 0, z: 0.19204608, w: -0.3111361}
        tangentMode: 0
      - serializedVersion: 2
        time: 1.4166667
        value: {x: 0, y: 0, z: 0.8660255, w: 0.49999988}
        inSlope: {x: 0, y: 0, z: 0.022530545, w: -0.03898142}
        outSlope: {x: 0, y: 0, z: 0, w: 0}
        tangentMode: 0
      m_PreInfinity: 2
      m_PostInfinity: 2
      m_RotationOrder: 4
    path: Anta_SX
  - curve:
      serializedVersion: 2
      m_Curve:
      - serializedVersion: 2
        time: 0
        value: {x: 0, y: 0, z: -0.0019567923, w: 0.9999981}
        inSlope: {x: 0, y: 0, z: 0, w: 0}
        outSlope: {x: 0, y: 0, z: -0.14201428, w: -0.00031789145}
        tangentMode: 0
      - serializedVersion: 2
        time: 0.375
        value: {x: 0, y: 0, z: -0.19462486, w: 0.98087776}
        inSlope: {x: 0, y: 0, z: -0.89081126, w: -0.1765887}
        outSlope: {x: 0, y: 0, z: -0.8922814, w: -0.1772046}
        tangentMode: 0
      - serializedVersion: 2
        time: 0.7083334
        value: {x: 0, y: 0, z: -0.5404471, w: 0.841378}
        inSlope: {x: 0, y: 0, z: -1.0229944, w: -0.6567835}
        outSlope: {x: 0, y: 0, z: -1.0226368, w: -0.65714115}
        tangentMode: 0
      - serializedVersion: 2
        time: 1.0416667
        value: {x: 0, y: 0, z: -0.8024555, w: 0.596712}
        inSlope: {x: 0, y: 0, z: -0.4962086, w: -0.6671547}
        outSlope: {x: 0, y: 0, z: -0.4951159, w: -0.6661415}
        tangentMode: 0
      - serializedVersion: 2
        time: 1.4166667
        value: {x: 0, y: 0, z: -0.8870109, w: 0.4617486}
        inSlope: {x: 0, y: 0, z: -0.02193451, w: -0.04196167}
        outSlope: {x: 0, y: 0, z: 0, w: 0}
        tangentMode: 0
      m_PreInfinity: 2
      m_PostInfinity: 2
      m_RotationOrder: 4
    path: Anta_DX
  m_CompressedRotationCurves: []
  m_EulerCurves: []
  m_PositionCurves: []
  m_ScaleCurves: []
  m_FloatCurves: []
  m_PPtrCurves: []
  m_SampleRate: 24
  m_WrapMode: 0
  m_Bounds:
    m_Center: {x: 0, y: 0, z: 0}
    m_Extent: {x: 0, y: 0, z: 0}
  m_ClipBindingConstant:
    genericBindings:
    - serializedVersion: 2
      path: 1373677356
      attribute: 2
      script: {fileID: 0}
      typeID: 4
      customType: 0
      isPPtrCurve: 0
    - serializedVersion: 2
      path: 1415783354
      attribute: 2
      script: {fileID: 0}
      typeID: 4
      customType: 0
      isPPtrCurve: 0
    pptrCurveMapping: []
  m_AnimationClipSettings:
    serializedVersion: 2
    m_AdditiveReferencePoseClip: {fileID: 0}
    m_AdditiveReferencePoseTime: 0
    m_StartTime: 0
    m_StopTime: 1.4166667
    m_OrientationOffsetY: 0
    m_Level: 0
    m_CycleOffset: 0
    m_HasAdditiveReferencePose: 0
    m_LoopTime: 0
    m_LoopBlend: 0
    m_LoopBlendOrientation: 0
    m_LoopBlendPositionY: 0
    m_LoopBlendPositionXZ: 0
    m_KeepOriginalOrientation: 0
    m_KeepOriginalPositionY: 1
    m_KeepOriginalPositionXZ: 0
    m_HeightFromFeet: 0
    m_Mirror: 0
  m_EditorCurves:
  - curve:
      serializedVersion: 2
      m_Curve:
      - serializedVersion: 2
        time: 0
        value: 0
        inSlope: 0
        outSlope: 0
        tangentMode: 0
      - serializedVersion: 2
        time: 0.4166667
        value: 0
        inSlope: 0
        outSlope: 0
        tangentMode: 0
      - serializedVersion: 2
        time: 0.75
        value: 0
        inSlope: 0
        outSlope: 0
        tangentMode: 0
      - serializedVersion: 2
        time: 1.25
        value: 0
        inSlope: 0
        outSlope: 0
        tangentMode: 0
      - serializedVersion: 2
        time: 1.4166667
        value: 0
        inSlope: 0
        outSlope: 0
        tangentMode: 0
      m_PreInfinity: 2
      m_PostInfinity: 2
      m_RotationOrder: 4
    attribute: m_LocalRotation.x
    path: Anta_SX
    classID: 4
    script: {fileID: 0}
  - curve:
      serializedVersion: 2
      m_Curve:
      - serializedVersion: 2
        time: 0
        value: 0
        inSlope: 0
        outSlope: 0
        tangentMode: 0
      - serializedVersion: 2
        time: 0.4166667
        value: 0
        inSlope: 0
        outSlope: 0
        tangentMode: 0
      - serializedVersion: 2
        time: 0.75
        value: 0
        inSlope: 0
        outSlope: 0
        tangentMode: 0
      - serializedVersion: 2
        time: 1.25
        value: 0
        inSlope: 0
        outSlope: 0
        tangentMode: 0
      - serializedVersion: 2
        time: 1.4166667
        value: 0
        inSlope: 0
        outSlope: 0
        tangentMode: 0
      m_PreInfinity: 2
      m_PostInfinity: 2
      m_RotationOrder: 4
    attribute: m_LocalRotation.y
    path: Anta_SX
    classID: 4
    script: {fileID: 0}
  - curve:
      serializedVersion: 2
      m_Curve:
      - serializedVersion: 2
        time: 0
        value: 0.0018785209
        inSlope: 0
        outSlope: 0.13638864
        tangentMode: 0
      - serializedVersion: 2
        time: 0.4166667
        value: 0.22413893
        inSlope: 0.9158134
        outSlope: 0.9182543
        tangentMode: 0
      - serializedVersion: 2
        time: 0.75
        value: 0.56211966
        inSlope: 0.95611817
        outSlope: 0.9492636
        tangentMode: 0
      - serializedVersion: 2
        time: 1.25
        value: 0.85045063
        inSlope: 0.19228458
        outSlope: 0.19204608
        tangentMode: 0
      - serializedVersion: 2
        time: 1.4166667
        value: 0.8660255
        inSlope: 0.022530545
        outSlope: 0
        tangentMode: 0
      m_PreInfinity: 2
      m_PostInfinity: 2
      m_RotationOrder: 4
    attribute: m_LocalRotation.z
    path: Anta_SX
    classID: 4
    script: {fileID: 0}
  - curve:
      serializedVersion: 2
      m_Curve:
      - serializedVersion: 2
        time: 0
        value: 0.9999982
        inSlope: 0
        outSlope: -0.00014305115
        tangentMode: 0
      - serializedVersion: 2
        time: 0.4166667
        value: 0.9745572
        inSlope: -0.21042822
        outSlope: -0.21135809
        tangentMode: 0
      - serializedVersion: 2
        time: 0.75
        value: 0.82705593
        inSlope: -0.64945227
        outSlope: -0.6456375
        tangentMode: 0
      - serializedVersion: 2
        time: 1.25
        value: 0.5260549
        inSlope: -0.31077862
        outSlope: -0.3111361
        tangentMode: 0
      - serializedVersion: 2
        time: 1.4166667
        value: 0.49999988
        inSlope: -0.03898142
        outSlope: 0
        tangentMode: 0
      m_PreInfinity: 2
      m_PostInfinity: 2
      m_RotationOrder: 4
    attribute: m_LocalRotation.w
    path: Anta_SX
    classID: 4
    script: {fileID: 0}
  - curve:
      serializedVersion: 2
      m_Curve:
      - serializedVersion: 2
        time: 0
        value: 0
        inSlope: 0
        outSlope: 0
        tangentMode: 0
      - serializedVersion: 2
        time: 0.375
        value: 0
        inSlope: 0
        outSlope: 0
        tangentMode: 0
      - serializedVersion: 2
        time: 0.7083334
        value: 0
        inSlope: 0
        outSlope: 0
        tangentMode: 0
      - serializedVersion: 2
        time: 1.0416667
        value: 0
        inSlope: 0
        outSlope: 0
        tangentMode: 0
      - serializedVersion: 2
        time: 1.4166667
        value: 0
        inSlope: 0
        outSlope: 0
        tangentMode: 0
      m_PreInfinity: 2
      m_PostInfinity: 2
      m_RotationOrder: 4
    attribute: m_LocalRotation.x
    path: Anta_DX
    classID: 4
    script: {fileID: 0}
  - curve:
      serializedVersion: 2
      m_Curve:
      - serializedVersion: 2
        time: 0
        value: 0
        inSlope: 0
        outSlope: 0
        tangentMode: 0
      - serializedVersion: 2
        time: 0.375
        value: 0
        inSlope: 0
        outSlope: 0
        tangentMode: 0
      - serializedVersion: 2
        time: 0.7083334
        value: 0
        inSlope: 0
        outSlope: 0
        tangentMode: 0
      - serializedVersion: 2
        time: 1.0416667
        value: 0
        inSlope: 0
        outSlope: 0
        tangentMode: 0
      - serializedVersion: 2
        time: 1.4166667
        value: 0
        inSlope: 0
        outSlope: 0
        tangentMode: 0
      m_PreInfinity: 2
      m_PostInfinity: 2
      m_RotationOrder: 4
    attribute: m_LocalRotation.y
    path: Anta_DX
    classID: 4
    script: {fileID: 0}
  - curve:
      serializedVersion: 2
      m_Curve:
      - serializedVersion: 2
        time: 0
        value: -0.0019567923
        inSlope: 0
        outSlope: -0.14201428
        tangentMode: 0
      - serializedVersion: 2
        time: 0.375
        value: -0.19462486
        inSlope: -0.89081126
        outSlope: -0.8922814
        tangentMode: 0
      - serializedVersion: 2
        time: 0.7083334
        value: -0.5404471
        inSlope: -1.0229944
        outSlope: -1.0226368
        tangentMode: 0
      - serializedVersion: 2
        time: 1.0416667
        value: -0.8024555
        inSlope: -0.4962086
        outSlope: -0.4951159
        tangentMode: 0
      - serializedVersion: 2
        time: 1.4166667
        value: -0.8870109
        inSlope: -0.02193451
        outSlope: 0
        tangentMode: 0
      m_PreInfinity: 2
      m_PostInfinity: 2
      m_RotationOrder: 4
    attribute: m_LocalRotation.z
    path: Anta_DX
    classID: 4
    script: {fileID: 0}
  - curve:
      serializedVersion: 2
      m_Curve:
      - serializedVersion: 2
        time: 0
        value: 0.9999981
        inSlope: 0
        outSlope: -0.00031789145
        tangentMode: 0
      - serializedVersion: 2
        time: 0.375
        value: 0.98087776
        inSlope: -0.1765887
        outSlope: -0.1772046
        tangentMode: 0
      - serializedVersion: 2
        time: 0.7083334
        value: 0.841378
        inSlope: -0.6567835
        outSlope: -0.65714115
        tangentMode: 0
      - serializedVersion: 2
        time: 1.0416667
        value: 0.596712
        inSlope: -0.6671547
        outSlope: -0.6661415
        tangentMode: 0
      - serializedVersion: 2
        time: 1.4166667
        value: 0.4617486
        inSlope: -0.04196167
        outSlope: 0
        tangentMode: 0
      m_PreInfinity: 2
      m_PostInfinity: 2
      m_RotationOrder: 4
    attribute: m_LocalRotation.w
    path: Anta_DX
    classID: 4
    script: {fileID: 0}
  m_EulerEditorCurves:
  - curve:
      serializedVersion: 2
      m_Curve: []
      m_PreInfinity: 2
      m_PostInfinity: 2
      m_RotationOrder: 4
    attribute: localEulerAngles.x
    path: Anta_DX
    classID: 4
    script: {fileID: 0}
  - curve:
      serializedVersion: 2
      m_Curve: []
      m_PreInfinity: 2
      m_PostInfinity: 2
      m_RotationOrder: 4
    attribute: localEulerAngles.y
    path: Anta_DX
    classID: 4
    script: {fileID: 0}
  - curve:
      serializedVersion: 2
      m_Curve:
      - serializedVersion: 2
        time: 0
        value: -0.224232
        inSlope: -16.232512
        outSlope: -16.232512
        tangentMode: 0
      - serializedVersion: 2
        time: 0.375
        value: -22.445616
        inSlope: -104.11501
        outSlope: -104.20684
        tangentMode: 0
      - serializedVersion: 2
        time: 0.7083334
        value: -65.42816
        inSlope: -139.28465
        outSlope: -139.28465
        tangentMode: 0
      - serializedVersion: 2
        time: 1.0416667
        value: -106.730446
        inSlope: -95.23553
        outSlope: -95.161865
        tangentMode: 0
      - serializedVersion: 2
        time: 1.4166667
        value: -124.99999
        inSlope: -5.3812256
        outSlope: -5.3812256
        tangentMode: 0
      m_PreInfinity: 2
      m_PostInfinity: 2
      m_RotationOrder: 4
    attribute: localEulerAngles.z
    path: Anta_DX
    classID: 4
    script: {fileID: 0}
  - curve:
      serializedVersion: 2
      m_Curve: []
      m_PreInfinity: 2
      m_PostInfinity: 2
      m_RotationOrder: 4
    attribute: localEulerAngles.x
    path: Anta_SX
    classID: 4
    script: {fileID: 0}
  - curve:
      serializedVersion: 2
      m_Curve: []
      m_PreInfinity: 2
      m_PostInfinity: 2
      m_RotationOrder: 4
    attribute: localEulerAngles.y
    path: Anta_SX
    classID: 4
    script: {fileID: 0}
  - curve:
      serializedVersion: 2
      m_Curve:
      - serializedVersion: 2
        time: 0
        value: 0.21526274
        inSlope: 15.582956
        outSlope: 15.582956
        tangentMode: 0
      - serializedVersion: 2
        time: 0.4166667
        value: 25.904495
        inSlope: 107.72028
        outSlope: 107.93684
        tangentMode: 0
      - serializedVersion: 2
        time: 0.75
        value: 68.40502
        inSlope: 132.46141
        outSlope: 131.56206
        tangentMode: 0
      - serializedVersion: 2
        time: 1.25
        value: 116.52142
        inSlope: 41.841614
        outSlope: 41.89085
        tangentMode: 0
      - serializedVersion: 2
        time: 1.4166667
        value: 120
        inSlope: 5.1663184
        outSlope: 5.1663184
        tangentMode: 0
      m_PreInfinity: 2
      m_PostInfinity: 2
      m_RotationOrder: 4
    attribute: localEulerAngles.z
    path: Anta_SX
    classID: 4
    script: {fileID: 0}
  m_HasGenericRootTransform: 0
  m_HasMotionFloatCurves: 0
  m_GenerateMotionCurves: 0
  m_Events: []
