%YAML 1.1
%TAG !u! tag:unity3d.com,2011:
--- !u!74 &7400000
AnimationClip:
  m_ObjectHideFlags: 0
  m_PrefabParentObject: {fileID: 0}
  m_PrefabInternal: {fileID: 0}
  m_Name: PortaAntipanicoOpenE
  serializedVersion: 6
  m_Legacy: 0
  m_Compressed: 0
  m_UseHighQualityCurve: 1
  m_RotationCurves:
  - curve:
      serializedVersion: 2
      m_Curve:
      - serializedVersion: 2
        time: 0
        value: {x: -0.70711184, y: -0.002744697, z: -0.002744697, w: 0.70711184}
        inSlope: {x: 0.0000082015995, y: 0.0044913264, z: 0.0044913264, w: -0.0000082015995}
        outSlope: {x: 0.0000082015995, y: 0.0044913264, z: 0.0044913264, w: -0.0000082015995}
        tangentMode: 0
      - serializedVersion: 2
        time: 0.16666675
        value: {x: -0.7071068, y: 0.000000004866587, z: 0.0000000048665867, w: 0.7071068}
        inSlope: {x: 0.000055789842, y: 0.030622698, z: 0.030622697, w: -0.000055789842}
        outSlope: {x: 0.000055789842, y: 0.030622698, z: 0.030622697, w: -0.000055789842}
        tangentMode: 0
      - serializedVersion: 2
        time: 0.4583335
        value: {x: -0.6960717, y: 0.12443583, z: 0.12443581, w: 0.6960717}
        inSlope: {x: 0.14903162, y: 0.81967056, z: 0.81967044, w: -0.14903162}
        outSlope: {x: 0.14903162, y: 0.81967056, z: 0.81967044, w: -0.14903162}
        tangentMode: 0
      - serializedVersion: 2
        time: 0.66666675
        value: {x: -0.62761235, y: 0.3257343, z: 0.32573423, w: 0.62761235}
        inSlope: {x: 0.52257127, y: 1.0060647, z: 1.0060647, w: -0.522572}
        outSlope: {x: 0.52257127, y: 1.0060647, z: 1.0060647, w: -0.522572}
        tangentMode: 0
      - serializedVersion: 2
        time: 0.875
        value: {x: -0.49482918, y: 0.5051179, z: 0.5051179, w: 0.49482915}
        inSlope: {x: 0.66040987, y: 0.65029913, z: 0.65029913, w: -0.66040987}
        outSlope: {x: 0.66040987, y: 0.65029913, z: 0.65029913, w: -0.66040987}
        tangentMode: 0
      - serializedVersion: 2
        time: 1.1666667
        value: {x: -0.36944652, y: 0.6029173, z: 0.6029173, w: 0.36944652}
        inSlope: {x: 0.10474006, y: 0.06470764, z: 0.06470764, w: -0.1047397}
        outSlope: {x: 0.10474006, y: 0.06470764, z: 0.06470764, w: -0.1047397}
        tangentMode: 0
      - serializedVersion: 2
        time: 1.2083335
        value: {x: -0.36726823, y: 0.60424674, z: 0.6042467, w: 0.36726823}
        inSlope: {x: 0.052278657, y: 0.03190607, z: 0.031904638, w: -0.052278657}
        outSlope: {x: 0.052278657, y: 0.03190607, z: 0.031904638, w: -0.052278657}
        tangentMode: 0
      m_PreInfinity: 2
      m_PostInfinity: 2
      m_RotationOrder: 4
    path: 
  m_CompressedRotationCurves: []
  m_EulerCurves: []
  m_PositionCurves: []
  m_ScaleCurves: []
  m_FloatCurves: []
  m_PPtrCurves: []
  m_SampleRate: 24
  m_WrapMode: 0
  m_Bounds:
    m_Center: {x: 0, y: 0, z: 0}
    m_Extent: {x: 0, y: 0, z: 0}
  m_ClipBindingConstant:
    genericBindings:
    - serializedVersion: 2
      path: 0
      attribute: 2
      script: {fileID: 0}
      typeID: 4
      customType: 0
      isPPtrCurve: 0
    pptrCurveMapping: []
  m_AnimationClipSettings:
    serializedVersion: 2
    m_AdditiveReferencePoseClip: {fileID: 0}
    m_AdditiveReferencePoseTime: 0
    m_StartTime: 0
    m_StopTime: 1.2083335
    m_OrientationOffsetY: 0
    m_Level: 0
    m_CycleOffset: 0
    m_HasAdditiveReferencePose: 0
    m_LoopTime: 0
    m_LoopBlend: 0
    m_LoopBlendOrientation: 0
    m_LoopBlendPositionY: 0
    m_LoopBlendPositionXZ: 0
    m_KeepOriginalOrientation: 0
    m_KeepOriginalPositionY: 1
    m_KeepOriginalPositionXZ: 0
    m_HeightFromFeet: 0
    m_Mirror: 0
  m_EditorCurves:
  - curve:
      serializedVersion: 2
      m_Curve:
      - serializedVersion: 2
        time: 0
        value: -0.70711184
        inSlope: 0.0000082015995
        outSlope: 0.0000082015995
        tangentMode: 0
      - serializedVersion: 2
        time: 0.16666675
        value: -0.7071068
        inSlope: 0.000055789842
        outSlope: 0.000055789842
        tangentMode: 0
      - serializedVersion: 2
        time: 0.4583335
        value: -0.6960717
        inSlope: 0.14903162
        outSlope: 0.14903162
        tangentMode: 0
      - serializedVersion: 2
        time: 0.66666675
        value: -0.62761235
        inSlope: 0.52257127
        outSlope: 0.52257127
        tangentMode: 0
      - serializedVersion: 2
        time: 0.875
        value: -0.49482918
        inSlope: 0.66040987
        outSlope: 0.66040987
        tangentMode: 0
      - serializedVersion: 2
        time: 1.1666667
        value: -0.36944652
        inSlope: 0.10474006
        outSlope: 0.10474006
        tangentMode: 0
      - serializedVersion: 2
        time: 1.2083335
        value: -0.36726823
        inSlope: 0.052278657
        outSlope: 0.052278657
        tangentMode: 0
      m_PreInfinity: 2
      m_PostInfinity: 2
      m_RotationOrder: 4
    attribute: m_LocalRotation.x
    path: 
    classID: 4
    script: {fileID: 0}
  - curve:
      serializedVersion: 2
      m_Curve:
      - serializedVersion: 2
        time: 0
        value: -0.002744697
        inSlope: 0.0044913264
        outSlope: 0.0044913264
        tangentMode: 0
      - serializedVersion: 2
        time: 0.16666675
        value: 0.000000004866587
        inSlope: 0.030622698
        outSlope: 0.030622698
        tangentMode: 0
      - serializedVersion: 2
        time: 0.4583335
        value: 0.12443583
        inSlope: 0.81967056
        outSlope: 0.81967056
        tangentMode: 0
      - serializedVersion: 2
        time: 0.66666675
        value: 0.3257343
        inSlope: 1.0060647
        outSlope: 1.0060647
        tangentMode: 0
      - serializedVersion: 2
        time: 0.875
        value: 0.5051179
        inSlope: 0.65029913
        outSlope: 0.65029913
        tangentMode: 0
      - serializedVersion: 2
        time: 1.1666667
        value: 0.6029173
        inSlope: 0.06470764
        outSlope: 0.06470764
        tangentMode: 0
      - serializedVersion: 2
        time: 1.2083335
        value: 0.60424674
        inSlope: 0.03190607
        outSlope: 0.03190607
        tangentMode: 0
      m_PreInfinity: 2
      m_PostInfinity: 2
      m_RotationOrder: 4
    attribute: m_LocalRotation.y
    path: 
    classID: 4
    script: {fileID: 0}
  - curve:
      serializedVersion: 2
      m_Curve:
      - serializedVersion: 2
        time: 0
        value: -0.002744697
        inSlope: 0.0044913264
        outSlope: 0.0044913264
        tangentMode: 0
      - serializedVersion: 2
        time: 0.16666675
        value: 0.0000000048665867
        inSlope: 0.030622697
        outSlope: 0.030622697
        tangentMode: 0
      - serializedVersion: 2
        time: 0.4583335
        value: 0.12443581
        inSlope: 0.81967044
        outSlope: 0.81967044
        tangentMode: 0
      - serializedVersion: 2
        time: 0.66666675
        value: 0.32573423
        inSlope: 1.0060647
        outSlope: 1.0060647
        tangentMode: 0
      - serializedVersion: 2
        time: 0.875
        value: 0.5051179
        inSlope: 0.65029913
        outSlope: 0.65029913
        tangentMode: 0
      - serializedVersion: 2
        time: 1.1666667
        value: 0.6029173
        inSlope: 0.06470764
        outSlope: 0.06470764
        tangentMode: 0
      - serializedVersion: 2
        time: 1.2083335
        value: 0.6042467
        inSlope: 0.031904638
        outSlope: 0.031904638
        tangentMode: 0
      m_PreInfinity: 2
      m_PostInfinity: 2
      m_RotationOrder: 4
    attribute: m_LocalRotation.z
    path: 
    classID: 4
    script: {fileID: 0}
  - curve:
      serializedVersion: 2
      m_Curve:
      - serializedVersion: 2
        time: 0
        value: 0.70711184
        inSlope: -0.0000082015995
        outSlope: -0.0000082015995
        tangentMode: 0
      - serializedVersion: 2
        time: 0.16666675
        value: 0.7071068
        inSlope: -0.000055789842
        outSlope: -0.000055789842
        tangentMode: 0
      - serializedVersion: 2
        time: 0.4583335
        value: 0.6960717
        inSlope: -0.14903162
        outSlope: -0.14903162
        tangentMode: 0
      - serializedVersion: 2
        time: 0.66666675
        value: 0.62761235
        inSlope: -0.522572
        outSlope: -0.522572
        tangentMode: 0
      - serializedVersion: 2
        time: 0.875
        value: 0.49482915
        inSlope: -0.66040987
        outSlope: -0.66040987
        tangentMode: 0
      - serializedVersion: 2
        time: 1.1666667
        value: 0.36944652
        inSlope: -0.1047397
        outSlope: -0.1047397
        tangentMode: 0
      - serializedVersion: 2
        time: 1.2083335
        value: 0.36726823
        inSlope: -0.052278657
        outSlope: -0.052278657
        tangentMode: 0
      m_PreInfinity: 2
      m_PostInfinity: 2
      m_RotationOrder: 4
    attribute: m_LocalRotation.w
    path: 
    classID: 4
    script: {fileID: 0}
  m_EulerEditorCurves:
  - curve:
      serializedVersion: 2
      m_Curve:
      - serializedVersion: 2
        time: 0
        value: -90
        inSlope: 0
        outSlope: 0
        tangentMode: 0
      - serializedVersion: 2
        time: 0.16666675
        value: -90
        inSlope: 0
        outSlope: 0
        tangentMode: 0
      - serializedVersion: 2
        time: 0.4583335
        value: -90
        inSlope: 0.2878417
        outSlope: 0
        tangentMode: 0
      - serializedVersion: 2
        time: 0.66666675
        value: -90
        inSlope: 0
        outSlope: 0
        tangentMode: 0
      - serializedVersion: 2
        time: 0.875
        value: -90
        inSlope: 0
        outSlope: 0
        tangentMode: 0
      - serializedVersion: 2
        time: 1.1666667
        value: -90
        inSlope: 0
        outSlope: 2.0148888
        tangentMode: 0
      - serializedVersion: 2
        time: 1.2083335
        value: -90
        inSlope: 0
        outSlope: 0
        tangentMode: 0
      m_PreInfinity: 2
      m_PostInfinity: 2
      m_RotationOrder: 4
    attribute: localEulerAngles.x
    path: 
    classID: 4
    script: {fileID: 0}
  - curve:
      serializedVersion: 2
      m_Curve:
      - serializedVersion: 2
        time: 0
        value: -0.44479176
        inSlope: 0.727809
        outSlope: 0.727809
        tangentMode: 0
      - serializedVersion: 2
        time: 0.16666675
        value: 0.0000007886641
        inSlope: 4.962508
        outSlope: 4.9626718
        tangentMode: 0
      - serializedVersion: 2
        time: 0.4583335
        value: 20.271246
        inSlope: 134.46959
        outSlope: 134.74268
        tangentMode: 0
      - serializedVersion: 2
        time: 0.66666675
        value: 54.859123
        inSlope: 182.97528
        outSlope: 182.97528
        tangentMode: 0
      - serializedVersion: 2
        time: 0.875
        value: 91.179016
        inSlope: 149.7525
        outSlope: 149.34653
        tangentMode: 0
      - serializedVersion: 2
        time: 1.1666667
        value: 117.00299
        inSlope: 19.948341
        outSlope: 19.951134
        tangentMode: 0
      - serializedVersion: 2
        time: 1.2083335
        value: 117.41655
        inSlope: 9.923931
        outSlope: 9.923931
        tangentMode: 0
      m_PreInfinity: 2
      m_PostInfinity: 2
      m_RotationOrder: 4
    attribute: localEulerAngles.y
    path: 
    classID: 4
    script: {fileID: 0}
  - curve:
      serializedVersion: 2
      m_Curve:
      - serializedVersion: 2
        time: 0
        value: 0
        inSlope: 0
        outSlope: 0
        tangentMode: 0
      - serializedVersion: 2
        time: 0.16666675
        value: 0
        inSlope: 0
        outSlope: 0
        tangentMode: 0
      - serializedVersion: 2
        time: 0.4583335
        value: 0
        inSlope: 0
        outSlope: 0
        tangentMode: 0
      - serializedVersion: 2
        time: 0.66666675
        value: 0
        inSlope: 0
        outSlope: 0
        tangentMode: 0
      - serializedVersion: 2
        time: 0.875
        value: 0
        inSlope: 0
        outSlope: 0
        tangentMode: 0
      - serializedVersion: 2
        time: 1.1666667
        value: 0
        inSlope: 0
        outSlope: 0
        tangentMode: 0
      - serializedVersion: 2
        time: 1.2083335
        value: 0
        inSlope: 0
        outSlope: 0
        tangentMode: 0
      m_PreInfinity: 2
      m_PostInfinity: 2
      m_RotationOrder: 4
    attribute: localEulerAngles.z
    path: 
    classID: 4
    script: {fileID: 0}
  m_HasGenericRootTransform: 1
  m_HasMotionFloatCurves: 0
  m_GenerateMotionCurves: 0
  m_Events: []
