%YAML 1.1
%TAG !u! tag:unity3d.com,2011:
--- !u!74 &7400000
AnimationClip:
  m_ObjectHideFlags: 0
  m_PrefabParentObject: {fileID: 0}
  m_PrefabInternal: {fileID: 0}
  m_Name: SOSButtonPressedE
  serializedVersion: 6
  m_Legacy: 0
  m_Compressed: 0
  m_UseHighQualityCurve: 1
  m_RotationCurves: []
  m_CompressedRotationCurves: []
  m_EulerCurves: []
  m_PositionCurves:
  - curve:
      serializedVersion: 2
      m_Curve:
      - serializedVersion: 2
        time: 0
        value: {x: -0, y: -1.21e-13, z: -7.1e-14}
        inSlope: {x: 0.006980896, y: -0, z: -0}
        outSlope: {x: 0.006980896, y: -0, z: -0}
        tangentMode: 0
      - serializedVersion: 2
        time: 0.041666668
        value: {x: 0.00029087067, y: -1.21e-13, z: -7.1e-14}
        inSlope: {x: 0.006980896, y: -0, z: -0}
        outSlope: {x: 0.020931244, y: -0, z: -0}
        tangentMode: 0
      - serializedVersion: 2
        time: 0.083333336
        value: {x: 0.0011630058, y: -1.21e-13, z: -7.1e-14}
        inSlope: {x: 0.020931244, y: -0, z: -0}
        outSlope: {x: 0.0336113, y: -0, z: -0}
        tangentMode: 0
      - serializedVersion: 2
        time: 0.125
        value: {x: 0.0025634766, y: -1.21e-13, z: -7.1e-14}
        inSlope: {x: 0.0336113, y: -0, z: -0}
        outSlope: {x: 0.042766567, y: -0, z: -0}
        tangentMode: 0
      - serializedVersion: 2
        time: 0.16666667
        value: {x: 0.004345417, y: -1.21e-13, z: -7.1e-14}
        inSlope: {x: 0.042766567, y: -0, z: -0}
        outSlope: {x: 0.046154033, y: -0, z: -0}
        tangentMode: 0
      - serializedVersion: 2
        time: 0.20833333
        value: {x: 0.0062685013, y: -1.21e-13, z: -7.1e-14}
        inSlope: {x: 0.046154033, y: -0, z: -0}
        outSlope: {x: 0.042755123, y: -0, z: -0}
        tangentMode: 0
      - serializedVersion: 2
        time: 0.25
        value: {x: 0.008049965, y: -1.21e-13, z: -7.1e-14}
        inSlope: {x: 0.042755123, y: -0, z: -0}
        outSlope: {x: 0.03362275, y: -0, z: -0}
        tangentMode: 0
      - serializedVersion: 2
        time: 0.29166666
        value: {x: 0.0094509125, y: -1.21e-13, z: -7.1e-14}
        inSlope: {x: 0.03362275, y: -0, z: -0}
        outSlope: {x: 0.020931235, y: -0, z: -0}
        tangentMode: 0
      - serializedVersion: 2
        time: 0.33333334
        value: {x: 0.010323048, y: -1.21e-13, z: -7.1e-14}
        inSlope: {x: 0.020931235, y: -0, z: -0}
        outSlope: {x: 0.006980898, y: -0, z: -0}
        tangentMode: 0
      - serializedVersion: 2
        time: 0.375
        value: {x: 0.010613918, y: -1.21e-13, z: -7.1e-14}
        inSlope: {x: 0.006980898, y: -0, z: -0}
        outSlope: {x: -0.0056419387, y: -0, z: -0}
        tangentMode: 0
      - serializedVersion: 2
        time: 0.39583334
        value: {x: 0.010496378, y: -1.21e-13, z: -7.1e-14}
        inSlope: {x: -0.0056419387, y: 0, z: 0}
        outSlope: {x: -0.0056419387, y: 0, z: 0}
        tangentMode: 0
      m_PreInfinity: 2
      m_PostInfinity: 2
      m_RotationOrder: 4
    path: Pulsante/Button
  m_ScaleCurves: []
  m_FloatCurves: []
  m_PPtrCurves: []
  m_SampleRate: 24
  m_WrapMode: 0
  m_Bounds:
    m_Center: {x: 0, y: 0, z: 0}
    m_Extent: {x: 0, y: 0, z: 0}
  m_ClipBindingConstant:
    genericBindings:
    - serializedVersion: 2
      path: 783682236
      attribute: 1
      script: {fileID: 0}
      typeID: 4
      customType: 0
      isPPtrCurve: 0
    pptrCurveMapping: []
  m_AnimationClipSettings:
    serializedVersion: 2
    m_AdditiveReferencePoseClip: {fileID: 0}
    m_AdditiveReferencePoseTime: 0
    m_StartTime: 0
    m_StopTime: 0.39583334
    m_OrientationOffsetY: 0
    m_Level: 0
    m_CycleOffset: 0
    m_HasAdditiveReferencePose: 0
    m_LoopTime: 0
    m_LoopBlend: 0
    m_LoopBlendOrientation: 0
    m_LoopBlendPositionY: 0
    m_LoopBlendPositionXZ: 0
    m_KeepOriginalOrientation: 0
    m_KeepOriginalPositionY: 1
    m_KeepOriginalPositionXZ: 0
    m_HeightFromFeet: 0
    m_Mirror: 0
  m_EditorCurves:
  - curve:
      serializedVersion: 2
      m_Curve:
      - serializedVersion: 2
        time: 0
        value: -0
        inSlope: 0.006980896
        outSlope: 0.006980896
        tangentMode: 0
      - serializedVersion: 2
        time: 0.041666668
        value: 0.00029087067
        inSlope: 0.006980896
        outSlope: 0.020931244
        tangentMode: 0
      - serializedVersion: 2
        time: 0.083333336
        value: 0.0011630058
        inSlope: 0.020931244
        outSlope: 0.0336113
        tangentMode: 0
      - serializedVersion: 2
        time: 0.125
        value: 0.0025634766
        inSlope: 0.0336113
        outSlope: 0.042766567
        tangentMode: 0
      - serializedVersion: 2
        time: 0.16666667
        value: 0.004345417
        inSlope: 0.042766567
        outSlope: 0.046154033
        tangentMode: 0
      - serializedVersion: 2
        time: 0.20833333
        value: 0.0062685013
        inSlope: 0.046154033
        outSlope: 0.042755123
        tangentMode: 0
      - serializedVersion: 2
        time: 0.25
        value: 0.008049965
        inSlope: 0.042755123
        outSlope: 0.03362275
        tangentMode: 0
      - serializedVersion: 2
        time: 0.29166666
        value: 0.0094509125
        inSlope: 0.03362275
        outSlope: 0.020931235
        tangentMode: 0
      - serializedVersion: 2
        time: 0.33333334
        value: 0.010323048
        inSlope: 0.020931235
        outSlope: 0.006980898
        tangentMode: 0
      - serializedVersion: 2
        time: 0.375
        value: 0.010613918
        inSlope: 0.006980898
        outSlope: -0.0056419387
        tangentMode: 0
      - serializedVersion: 2
        time: 0.39583334
        value: 0.010496378
        inSlope: -0.0056419387
        outSlope: -0.0056419387
        tangentMode: 0
      m_PreInfinity: 2
      m_PostInfinity: 2
      m_RotationOrder: 4
    attribute: m_LocalPosition.x
    path: Pulsante/Button
    classID: 4
    script: {fileID: 0}
  - curve:
      serializedVersion: 2
      m_Curve:
      - serializedVersion: 2
        time: 0
        value: -1.21e-13
        inSlope: -0
        outSlope: -0
        tangentMode: 0
      - serializedVersion: 2
        time: 0.041666668
        value: -1.21e-13
        inSlope: -0
        outSlope: -0
        tangentMode: 0
      - serializedVersion: 2
        time: 0.083333336
        value: -1.21e-13
        inSlope: -0
        outSlope: -0
        tangentMode: 0
      - serializedVersion: 2
        time: 0.125
        value: -1.21e-13
        inSlope: -0
        outSlope: -0
        tangentMode: 0
      - serializedVersion: 2
        time: 0.16666667
        value: -1.21e-13
        inSlope: -0
        outSlope: -0
        tangentMode: 0
      - serializedVersion: 2
        time: 0.20833333
        value: -1.21e-13
        inSlope: -0
        outSlope: -0
        tangentMode: 0
      - serializedVersion: 2
        time: 0.25
        value: -1.21e-13
        inSlope: -0
        outSlope: -0
        tangentMode: 0
      - serializedVersion: 2
        time: 0.29166666
        value: -1.21e-13
        inSlope: -0
        outSlope: -0
        tangentMode: 0
      - serializedVersion: 2
        time: 0.33333334
        value: -1.21e-13
        inSlope: -0
        outSlope: -0
        tangentMode: 0
      - serializedVersion: 2
        time: 0.375
        value: -1.21e-13
        inSlope: -0
        outSlope: -0
        tangentMode: 0
      - serializedVersion: 2
        time: 0.39583334
        value: -1.21e-13
        inSlope: 0
        outSlope: 0
        tangentMode: 0
      m_PreInfinity: 2
      m_PostInfinity: 2
      m_RotationOrder: 4
    attribute: m_LocalPosition.y
    path: Pulsante/Button
    classID: 4
    script: {fileID: 0}
  - curve:
      serializedVersion: 2
      m_Curve:
      - serializedVersion: 2
        time: 0
        value: -7.1e-14
        inSlope: -0
        outSlope: -0
        tangentMode: 0
      - serializedVersion: 2
        time: 0.041666668
        value: -7.1e-14
        inSlope: -0
        outSlope: -0
        tangentMode: 0
      - serializedVersion: 2
        time: 0.083333336
        value: -7.1e-14
        inSlope: -0
        outSlope: -0
        tangentMode: 0
      - serializedVersion: 2
        time: 0.125
        value: -7.1e-14
        inSlope: -0
        outSlope: -0
        tangentMode: 0
      - serializedVersion: 2
        time: 0.16666667
        value: -7.1e-14
        inSlope: -0
        outSlope: -0
        tangentMode: 0
      - serializedVersion: 2
        time: 0.20833333
        value: -7.1e-14
        inSlope: -0
        outSlope: -0
        tangentMode: 0
      - serializedVersion: 2
        time: 0.25
        value: -7.1e-14
        inSlope: -0
        outSlope: -0
        tangentMode: 0
      - serializedVersion: 2
        time: 0.29166666
        value: -7.1e-14
        inSlope: -0
        outSlope: -0
        tangentMode: 0
      - serializedVersion: 2
        time: 0.33333334
        value: -7.1e-14
        inSlope: -0
        outSlope: -0
        tangentMode: 0
      - serializedVersion: 2
        time: 0.375
        value: -7.1e-14
        inSlope: -0
        outSlope: -0
        tangentMode: 0
      - serializedVersion: 2
        time: 0.39583334
        value: -7.1e-14
        inSlope: 0
        outSlope: 0
        tangentMode: 0
      m_PreInfinity: 2
      m_PostInfinity: 2
      m_RotationOrder: 4
    attribute: m_LocalPosition.z
    path: Pulsante/Button
    classID: 4
    script: {fileID: 0}
  m_EulerEditorCurves: []
  m_HasGenericRootTransform: 0
  m_HasMotionFloatCurves: 0
  m_GenerateMotionCurves: 0
  m_Events: []
